Laser_Trapping/Data/22FEB2018/tek0004CH3.csv

Model,MDO3014
Firmware Version,1.20

Waveform Type,ANALOG
Point Format,Y
Horizontal Units,s
Horizontal Scale,20
Horizontal Delay,0
Sample Interval,0.002
Record Length,100000
Gating,0.0% to 100.0%
Probe Attenuation,1
Vertical Units,V
Vertical Offset,0
Vertical Scale,0.005
Vertical Position,2
,
,
,
Label,
TIME,CH3
-100,-0.015
-99.998,-0.0144
-99.996,-0.015
-99.994,-0.0144
-99.992,-0.0156
-99.99,-0.0144
-99.988,-0.0148
-99.986,-0.0156
-99.984,-0.0154
-99.982,-0.0156
-99.98,-0.0118
-99.978,-0.0136
-99.976,-0.0158
-99.974,-0.016
-99.972,-0.0164
-99.97,-0.014
-99.968,-0.0136
-99.966,-0.015
-99.964,-0.015
-99.962,-0.0148
-99.96,-0.0152
-99.958,-0.0148
-99.956,-0.0146
-99.954,-0.0144
-99.952,-0.0154
-99.95,-0.0158
-99.948,-0.014
-99.946,-0.0152
-99.944,-0.016
-99.942,-0.0148
-99.94,-0.0142
-99.938,-0.0146
-99.936,-0.016
-99.934,-0.0146
-99.932,-0.0138
-99.93,-0.0164
-99.928,-0.014
-99.926,-0.0138
-99.924,-0.0152
-99.922,-0.0146
-99.92,-0.0154
-99.918,-0.0152
-99.916,-0.0152
-99.914,-0.0154
-99.912,-0.0156
-99.91,-0.0144
-99.908,-0.0158
-99.906,-0.0156
-99.904,-0.016
-99.902,-0.0166
-99.9,-0.0138
-99.898,-0.0158
-99.896,-0.0132
-99.894,-0.0138
-99.892,-0.0156
-99.89,-0.0148
-99.888,-0.0144
-99.886,-0.0144
-99.884,-0.0152
-99.882,-0.0154
-99.88,-0.0154
-99.878,-0.015
-99.876,-0.0158
-99.874,-0.0148
-99.872,-0.0144
-99.87,-0.0146
-99.868,-0.0154
-99.866,-0.0162
-99.864,-0.0152
-99.862,-0.0146
-99.86,-0.0154
-99.858,-0.0138
-99.856,-0.0152
-99.854,-0.014
-99.852,-0.0146
-99.85,-0.015
-99.848,-0.0134
-99.846,-0.0146
-99.844,-0.0144
-99.842,-0.0142
-99.84,-0.015
-99.838,-0.0148
-99.836,-0.0154
-99.834,-0.0166
-99.832,-0.014
-99.83,-0.0154
-99.828,-0.0142
-99.826,-0.0146
-99.824,-0.0148
-99.822,-0.0156
-99.82,-0.016
-99.818,-0.0144
-99.816,-0.014
-99.814,-0.0148
-99.812,-0.0148
-99.81,-0.0138
-99.808,-0.0156
-99.806,-0.0146
-99.804,-0.0156
-99.802,-0.015
-99.8,-0.0146
-99.798,-0.0158
-99.796,-0.0156
-99.794,-0.0162
-99.792,-0.0144
-99.79,-0.0148
-99.788,-0.0148
-99.786,-0.0146
-99.784,-0.0142
-99.782,-0.0164
-99.78,-0.0138
-99.778,-0.0162
-99.776,-0.0146
-99.774,-0.014
-99.772,-0.0162
-99.77,-0.0148
-99.768,-0.0142
-99.766,-0.016
-99.764,-0.0152
-99.762,-0.0144
-99.76,-0.0152
-99.758,-0.0148
-99.756,-0.0142
-99.754,-0.014
-99.752,-0.014
-99.75,-0.0146
-99.748,-0.0148
-99.746,-0.0148
-99.744,-0.015
-99.742,-0.0152
-99.74,-0.0166
-99.738,-0.014
-99.736,-0.0172
-99.734,-0.016
-99.732,-0.0142
-99.73,-0.015
-99.728,-0.0144
-99.726,-0.0136
-99.724,-0.0142
-99.722,-0.0132
-99.72,-0.014
-99.718,-0.0144
-99.716,-0.0146
-99.714,-0.0148
-99.712,-0.0154
-99.71,-0.015
-99.708,-0.0148
-99.706,-0.0154
-99.704,-0.0154
-99.702,-0.0148
-99.7,-0.0136
-99.698,-0.016
-99.696,-0.0148
-99.694,-0.0156
-99.692,-0.0142
-99.69,-0.0138
-99.688,-0.0148
-99.686,-0.014
-99.684,-0.0144
-99.682,-0.015
-99.68,-0.0152
-99.678,-0.0148
-99.676,-0.0158
-99.674,-0.0152
-99.672,-0.0158
-99.67,-0.0146
-99.668,-0.0144
-99.666,-0.0132
-99.664,-0.0148
-99.662,-0.0148
-99.66,-0.0146
-99.658,-0.0144
-99.656,-0.016
-99.654,-0.0152
-99.652,-0.016
-99.65,-0.0156
-99.648,-0.014
-99.646,-0.0136
-99.644,-0.0144
-99.642,-0.0142
-99.64,-0.0166
-99.638,-0.0134
-99.636,-0.015
-99.634,-0.0146
-99.632,-0.0146
-99.63,-0.015
-99.628,-0.015
-99.626,-0.0146
-99.624,-0.0154
-99.622,-0.0142
-99.62,-0.015
-99.618,-0.0156
-99.616,-0.0152
-99.614,-0.0152
-99.612,-0.0148
-99.61,-0.0164
-99.608,-0.0156
-99.606,-0.0142
-99.604,-0.0152
-99.602,-0.013
-99.6,-0.015
-99.598,-0.0158
-99.596,-0.0146
-99.594,-0.0152
-99.592,-0.0148
-99.59,-0.014
-99.588,-0.0146
-99.586,-0.0156
-99.584,-0.0154
-99.582,-0.016
-99.58,-0.0152
-99.578,-0.0152
-99.576,-0.0154
-99.574,-0.0148
-99.572,-0.015
-99.57,-0.0148
-99.568,-0.015
-99.566,-0.0158
-99.564,-0.0142
-99.562,-0.0144
-99.56,-0.0142
-99.558,-0.0146
-99.556,-0.014
-99.554,-0.0144
-99.552,-0.0148
-99.55,-0.0164
-99.548,-0.0148
-99.546,-0.0148
-99.544,-0.0148
-99.542,-0.0142
-99.54,-0.015
-99.538,-0.0164
-99.536,-0.0152
-99.534,-0.0156
-99.532,-0.0162
-99.53,-0.0148
-99.528,-0.0152
-99.526,-0.016
-99.524,-0.0148
-99.522,-0.0146
-99.52,-0.0144
-99.518,-0.0138
-99.516,-0.0156
-99.514,-0.015
-99.512,-0.015
-99.51,-0.0152
-99.508,-0.0146
-99.506,-0.0146
-99.504,-0.0154
-99.502,-0.0156
-99.5,-0.0146
-99.498,-0.0154
-99.496,-0.0152
-99.494,-0.0142
-99.492,-0.0136
-99.49,-0.0158
-99.488,-0.015
-99.486,-0.0152
-99.484,-0.0148
-99.482,-0.0148
-99.48,-0.0144
-99.478,-0.0146
-99.476,-0.014
-99.474,-0.0138
-99.472,-0.0154
-99.47,-0.015
-99.468,-0.015
-99.466,-0.015
-99.464,-0.0156
-99.462,-0.0146
-99.46,-0.0156
-99.458,-0.0158
-99.456,-0.0156
-99.454,-0.0144
-99.452,-0.0144
-99.45,-0.0138
-99.448,-0.0156
-99.446,-0.0156
-99.444,-0.0148
-99.442,-0.0152
-99.44,-0.015
-99.438,-0.016
-99.436,-0.0146
-99.434,-0.0158
-99.432,-0.0148
-99.43,-0.015
-99.428,-0.0146
-99.426,-0.0148
-99.424,-0.015
-99.422,-0.0148
-99.42,-0.0156
-99.418,-0.0144
-99.416,-0.016
-99.414,-0.0158
-99.412,-0.015
-99.41,-0.0158
-99.408,-0.0158
-99.406,-0.015
-99.404,-0.0152
-99.402,-0.0162
-99.4,-0.015
-99.398,-0.0148
-99.396,-0.019
-99.394,-0.0152
-99.392,-0.0148
-99.39,-0.015
-99.388,-0.0136
-99.386,-0.0152
-99.384,-0.0146
-99.382,-0.015
-99.38,-0.0156
-99.378,-0.0156
-99.376,-0.0154
-99.374,-0.0154
-99.372,-0.016
-99.37,-0.0148
-99.368,-0.015
-99.366,-0.0158
-99.364,-0.0156
-99.362,-0.0156
-99.36,-0.0166
-99.358,-0.0156
-99.356,-0.0132
-99.354,-0.0148
-99.352,-0.0146
-99.35,-0.015
-99.348,-0.0158
-99.346,-0.0144
-99.344,-0.0156
-99.342,-0.0144
-99.34,-0.0156
-99.338,-0.015
-99.336,-0.0156
-99.334,-0.0158
-99.332,-0.0152
-99.33,-0.0146
-99.328,-0.016
-99.326,-0.0154
-99.324,-0.0156
-99.322,-0.0152
-99.32,-0.0152
-99.318,-0.0164
-99.316,-0.0154
-99.314,-0.0154
-99.312,-0.0154
-99.31,-0.0148
-99.308,-0.015
-99.306,-0.015
-99.304,-0.0144
-99.302,-0.0144
-99.3,-0.0154
-99.298,-0.0156
-99.296,-0.0156
-99.294,-0.0158
-99.292,-0.016
-99.29,-0.014
-99.288,-0.014
-99.286,-0.0156
-99.284,-0.0142
-99.282,-0.0148
-99.28,-0.0144
-99.278,-0.0148
-99.276,-0.0154
-99.274,-0.0154
-99.272,-0.0152
-99.27,-0.0154
-99.268,-0.0146
-99.266,-0.015
-99.264,-0.0158
-99.262,-0.0152
-99.26,-0.0152
-99.258,-0.0142
-99.256,-0.0158
-99.254,-0.0154
-99.252,-0.0158
-99.25,-0.0154
-99.248,-0.0146
-99.246,-0.0148
-99.244,-0.0162
-99.242,-0.0152
-99.24,-0.0166
-99.238,-0.0148
-99.236,-0.016
-99.234,-0.016
-99.232,-0.015
-99.23,-0.0154
-99.228,-0.015
-99.226,-0.0138
-99.224,-0.0154
-99.222,-0.0142
-99.22,-0.0148
-99.218,-0.0154
-99.216,-0.0148
-99.214,-0.0158
-99.212,-0.0158
-99.21,-0.0156
-99.208,-0.0162
-99.206,-0.0152
-99.204,-0.0136
-99.202,-0.0146
-99.2,-0.0144
-99.198,-0.0148
-99.196,-0.0158
-99.194,-0.015
-99.192,-0.0154
-99.19,-0.0146
-99.188,-0.0158
-99.186,-0.0152
-99.184,-0.0144
-99.182,-0.0162
-99.18,-0.0148
-99.178,-0.0148
-99.176,-0.0146
-99.174,-0.0152
-99.172,-0.0138
-99.17,-0.0152
-99.168,-0.0152
-99.166,-0.0156
-99.164,-0.0154
-99.162,-0.0182
-99.16,-0.016
-99.158,-0.0142
-99.156,-0.0154
-99.154,-0.0148
-99.152,-0.0156
-99.15,-0.015
-99.148,-0.0156
-99.146,-0.0154
-99.144,-0.016
-99.142,-0.0142
-99.14,-0.0152
-99.138,-0.0142
-99.136,-0.0152
-99.134,-0.0148
-99.132,-0.0148
-99.13,-0.0146
-99.128,-0.0138
-99.126,-0.0156
-99.124,-0.0156
-99.122,-0.0158
-99.12,-0.0148
-99.118,-0.0148
-99.116,-0.0146
-99.114,-0.0152
-99.112,-0.0152
-99.11,-0.0152
-99.108,-0.0162
-99.106,-0.0146
-99.104,-0.0156
-99.102,-0.0156
-99.1,-0.0142
-99.098,-0.0146
-99.096,-0.0146
-99.094,-0.015
-99.092,-0.0148
-99.09,-0.014
-99.088,-0.016
-99.086,-0.0152
-99.084,-0.0154
-99.082,-0.0148
-99.08,-0.0144
-99.078,-0.0144
-99.076,-0.015
-99.074,-0.015
-99.072,-0.0152
-99.07,-0.015
-99.068,-0.0148
-99.066,-0.016
-99.064,-0.0142
-99.062,-0.0152
-99.06,-0.0158
-99.058,-0.0146
-99.056,-0.0154
-99.054,-0.0154
-99.052,-0.0148
-99.05,-0.0152
-99.048,-0.0152
-99.046,-0.0146
-99.044,-0.0152
-99.042,-0.0154
-99.04,-0.0158
-99.038,-0.0152
-99.036,-0.0164
-99.034,-0.0152
-99.032,-0.0144
-99.03,-0.0158
-99.028,-0.0152
-99.026,-0.0156
-99.024,-0.0162
-99.022,-0.0146
-99.02,-0.016
-99.018,-0.0142
-99.016,-0.0156
-99.014,-0.0152
-99.012,-0.0148
-99.01,-0.0154
-99.008,-0.0152
-99.006,-0.0146
-99.004,-0.0152
-99.002,-0.015
-99,-0.0156
-98.998,-0.0162
-98.996,-0.0156
-98.994,-0.0154
-98.992,-0.0156
-98.99,-0.0158
-98.988,-0.016
-98.986,-0.0146
-98.984,-0.0156
-98.982,-0.0162
-98.98,-0.0142
-98.978,-0.0156
-98.976,-0.0152
-98.974,-0.0156
-98.972,-0.0152
-98.97,-0.015
-98.968,-0.0152
-98.966,-0.016
-98.964,-0.0142
-98.962,-0.0156
-98.96,-0.0152
-98.958,-0.0148
-98.956,-0.0154
-98.954,-0.0152
-98.952,-0.0162
-98.95,-0.015
-98.948,-0.0144
-98.946,-0.016
-98.944,-0.0146
-98.942,-0.0152
-98.94,-0.016
-98.938,-0.0146
-98.936,-0.0172
-98.934,-0.0152
-98.932,-0.0144
-98.93,-0.0164
-98.928,-0.0152
-98.926,-0.015
-98.924,-0.0154
-98.922,-0.0146
-98.92,-0.0148
-98.918,-0.0148
-98.916,-0.016
-98.914,-0.0162
-98.912,-0.0148
-98.91,-0.0152
-98.908,-0.0154
-98.906,-0.0154
-98.904,-0.0158
-98.902,-0.014
-98.9,-0.0152
-98.898,-0.0158
-98.896,-0.0158
-98.894,-0.0162
-98.892,-0.0152
-98.89,-0.0148
-98.888,-0.016
-98.886,-0.0146
-98.884,-0.0162
-98.882,-0.0154
-98.88,-0.0152
-98.878,-0.0148
-98.876,-0.0148
-98.874,-0.0154
-98.872,-0.0154
-98.87,-0.0152
-98.868,-0.0156
-98.866,-0.0156
-98.864,-0.0146
-98.862,-0.016
-98.86,-0.0142
-98.858,-0.0164
-98.856,-0.016
-98.854,-0.0156
-98.852,-0.0168
-98.85,-0.0146
-98.848,-0.0154
-98.846,-0.0164
-98.844,-0.015
-98.842,-0.015
-98.84,-0.0152
-98.838,-0.0152
-98.836,-0.016
-98.834,-0.0146
-98.832,-0.0156
-98.83,-0.015
-98.828,-0.0154
-98.826,-0.0158
-98.824,-0.0148
-98.822,-0.015
-98.82,-0.0158
-98.818,-0.0152
-98.816,-0.016
-98.814,-0.0164
-98.812,-0.0156
-98.81,-0.0142
-98.808,-0.0148
-98.806,-0.0154
-98.804,-0.0162
-98.802,-0.0154
-98.8,-0.016
-98.798,-0.0154
-98.796,-0.0148
-98.794,-0.0154
-98.792,-0.0154
-98.79,-0.0156
-98.788,-0.017
-98.786,-0.0158
-98.784,-0.0154
-98.782,-0.0152
-98.78,-0.0156
-98.778,-0.0154
-98.776,-0.0152
-98.774,-0.016
-98.772,-0.016
-98.77,-0.0154
-98.768,-0.0156
-98.766,-0.0146
-98.764,-0.0154
-98.762,-0.0152
-98.76,-0.0144
-98.758,-0.0156
-98.756,-0.0152
-98.754,-0.0182
-98.752,-0.0148
-98.75,-0.0148
-98.748,-0.0142
-98.746,-0.0158
-98.744,-0.0156
-98.742,-0.0154
-98.74,-0.015
-98.738,-0.0152
-98.736,-0.0164
-98.734,-0.0152
-98.732,-0.0176
-98.73,-0.0152
-98.728,-0.0148
-98.726,-0.0156
-98.724,-0.0144
-98.722,-0.015
-98.72,-0.0154
-98.718,-0.014
-98.716,-0.0156
-98.714,-0.0156
-98.712,-0.015
-98.71,-0.0156
-98.708,-0.0154
-98.706,-0.0148
-98.704,-0.016
-98.702,-0.0148
-98.7,-0.0156
-98.698,-0.0152
-98.696,-0.015
-98.694,-0.016
-98.692,-0.0146
-98.69,-0.0154
-98.688,-0.015
-98.686,-0.0142
-98.684,-0.0148
-98.682,-0.0144
-98.68,-0.0152
-98.678,-0.0158
-98.676,-0.0144
-98.674,-0.0158
-98.672,-0.015
-98.67,-0.015
-98.668,-0.0142
-98.666,-0.0156
-98.664,-0.0144
-98.662,-0.0154
-98.66,-0.0146
-98.658,-0.015
-98.656,-0.015
-98.654,-0.0154
-98.652,-0.0154
-98.65,-0.0148
-98.648,-0.0152
-98.646,-0.0152
-98.644,-0.0144
-98.642,-0.016
-98.64,-0.0144
-98.638,-0.0152
-98.636,-0.0148
-98.634,-0.0144
-98.632,-0.016
-98.63,-0.0152
-98.628,-0.0156
-98.626,-0.0154
-98.624,-0.0152
-98.622,-0.0156
-98.62,-0.0158
-98.618,-0.0156
-98.616,-0.015
-98.614,-0.0142
-98.612,-0.0146
-98.61,-0.0154
-98.608,-0.0144
-98.606,-0.0158
-98.604,-0.0152
-98.602,-0.015
-98.6,-0.015
-98.598,-0.0138
-98.596,-0.0154
-98.594,-0.015
-98.592,-0.0144
-98.59,-0.0156
-98.588,-0.0158
-98.586,-0.0144
-98.584,-0.0164
-98.582,-0.0154
-98.58,-0.0146
-98.578,-0.0152
-98.576,-0.015
-98.574,-0.0158
-98.572,-0.015
-98.57,-0.015
-98.568,-0.0154
-98.566,-0.0156
-98.564,-0.0158
-98.562,-0.015
-98.56,-0.0146
-98.558,-0.0156
-98.556,-0.014
-98.554,-0.0152
-98.552,-0.015
-98.55,-0.0138
-98.548,-0.0146
-98.546,-0.0144
-98.544,-0.0154
-98.542,-0.0158
-98.54,-0.016
-98.538,-0.0152
-98.536,-0.0156
-98.534,-0.0152
-98.532,-0.0156
-98.53,-0.0154
-98.528,-0.016
-98.526,-0.016
-98.524,-0.016
-98.522,-0.015
-98.52,-0.0142
-98.518,-0.0148
-98.516,-0.0156
-98.514,-0.015
-98.512,-0.0148
-98.51,-0.0152
-98.508,-0.0156
-98.506,-0.015
-98.504,-0.0136
-98.502,-0.0142
-98.5,-0.0154
-98.498,-0.0152
-98.496,-0.0156
-98.494,-0.0154
-98.492,-0.0154
-98.49,-0.0156
-98.488,-0.0152
-98.486,-0.016
-98.484,-0.0156
-98.482,-0.0152
-98.48,-0.0156
-98.478,-0.0146
-98.476,-0.0148
-98.474,-0.0152
-98.472,-0.0138
-98.47,-0.0156
-98.468,-0.0152
-98.466,-0.0144
-98.464,-0.0156
-98.462,-0.0152
-98.46,-0.0156
-98.458,-0.0144
-98.456,-0.0148
-98.454,-0.0148
-98.452,-0.0154
-98.45,-0.015
-98.448,-0.0152
-98.446,-0.0154
-98.444,-0.0148
-98.442,-0.0154
-98.44,-0.0158
-98.438,-0.0162
-98.436,-0.015
-98.434,-0.0146
-98.432,-0.0158
-98.43,-0.0146
-98.428,-0.015
-98.426,-0.0148
-98.424,-0.016
-98.422,-0.0144
-98.42,-0.015
-98.418,-0.0152
-98.416,-0.0162
-98.414,-0.0146
-98.412,-0.0158
-98.41,-0.016
-98.408,-0.0154
-98.406,-0.0158
-98.404,-0.0144
-98.402,-0.016
-98.4,-0.0162
-98.398,-0.0144
-98.396,-0.0168
-98.394,-0.0138
-98.392,-0.0154
-98.39,-0.015
-98.388,-0.0156
-98.386,-0.0154
-98.384,-0.0158
-98.382,-0.015
-98.38,-0.0144
-98.378,-0.0142
-98.376,-0.014
-98.374,-0.0158
-98.372,-0.0156
-98.37,-0.013
-98.368,-0.015
-98.366,-0.0152
-98.364,-0.015
-98.362,-0.0156
-98.36,-0.0156
-98.358,-0.0156
-98.356,-0.0156
-98.354,-0.0158
-98.352,-0.0152
-98.35,-0.0152
-98.348,-0.0154
-98.346,-0.014
-98.344,-0.0144
-98.342,-0.0146
-98.34,-0.0154
-98.338,-0.0154
-98.336,-0.014
-98.334,-0.0146
-98.332,-0.0158
-98.33,-0.0152
-98.328,-0.0148
-98.326,-0.0156
-98.324,-0.0152
-98.322,-0.015
-98.32,-0.0152
-98.318,-0.0148
-98.316,-0.0162
-98.314,-0.0156
-98.312,-0.0156
-98.31,-0.0146
-98.308,-0.0146
-98.306,-0.017
-98.304,-0.0146
-98.302,-0.0154
-98.3,-0.016
-98.298,-0.0142
-98.296,-0.0164
-98.294,-0.0154
-98.292,-0.015
-98.29,-0.0158
-98.288,-0.0162
-98.286,-0.0152
-98.284,-0.0152
-98.282,-0.0148
-98.28,-0.015
-98.278,-0.0144
-98.276,-0.0162
-98.274,-0.0158
-98.272,-0.0162
-98.27,-0.0156
-98.268,-0.0152
-98.266,-0.0152
-98.264,-0.0148
-98.262,-0.0136
-98.26,-0.015
-98.258,-0.0148
-98.256,-0.0148
-98.254,-0.0154
-98.252,-0.0156
-98.25,-0.0154
-98.248,-0.0162
-98.246,-0.016
-98.244,-0.0152
-98.242,-0.016
-98.24,-0.0154
-98.238,-0.0156
-98.236,-0.0158
-98.234,-0.016
-98.232,-0.0152
-98.23,-0.0154
-98.228,-0.0154
-98.226,-0.015
-98.224,-0.0148
-98.222,-0.015
-98.22,-0.0138
-98.218,-0.0152
-98.216,-0.0152
-98.214,-0.0156
-98.212,-0.0152
-98.21,-0.0148
-98.208,-0.0154
-98.206,-0.0154
-98.204,-0.016
-98.202,-0.0154
-98.2,-0.015
-98.198,-0.0146
-98.196,-0.0144
-98.194,-0.014
-98.192,-0.0154
-98.19,-0.0156
-98.188,-0.016
-98.186,-0.015
-98.184,-0.0142
-98.182,-0.014
-98.18,-0.0152
-98.178,-0.014
-98.176,-0.0144
-98.174,-0.0156
-98.172,-0.0152
-98.17,-0.0152
-98.168,-0.0142
-98.166,-0.0152
-98.164,-0.0162
-98.162,-0.0154
-98.16,-0.0146
-98.158,-0.0154
-98.156,-0.0148
-98.154,-0.0164
-98.152,-0.0156
-98.15,-0.0138
-98.148,-0.015
-98.146,-0.0162
-98.144,-0.0162
-98.142,-0.0138
-98.14,-0.0152
-98.138,-0.0146
-98.136,-0.0144
-98.134,-0.0152
-98.132,-0.0144
-98.13,-0.0162
-98.128,-0.0142
-98.126,-0.0162
-98.124,-0.0134
-98.122,-0.0148
-98.12,-0.016
-98.118,-0.015
-98.116,-0.016
-98.114,-0.0136
-98.112,-0.0158
-98.11,-0.0148
-98.108,-0.0162
-98.106,-0.0152
-98.104,-0.0154
-98.102,-0.0156
-98.1,-0.014
-98.098,-0.0144
-98.096,-0.0138
-98.094,-0.014
-98.092,-0.0156
-98.09,-0.0146
-98.088,-0.0162
-98.086,-0.015
-98.084,-0.0168
-98.082,-0.016
-98.08,-0.0154
-98.078,-0.0138
-98.076,-0.0142
-98.074,-0.016
-98.072,-0.016
-98.07,-0.0136
-98.068,-0.0162
-98.066,-0.0146
-98.064,-0.0144
-98.062,-0.0152
-98.06,-0.0148
-98.058,-0.0156
-98.056,-0.0136
-98.054,-0.0156
-98.052,-0.015
-98.05,-0.0134
-98.048,-0.0146
-98.046,-0.0158
-98.044,-0.015
-98.042,-0.0154
-98.04,-0.015
-98.038,-0.0152
-98.036,-0.017
-98.034,-0.014
-98.032,-0.0156
-98.03,-0.0174
-98.028,-0.015
-98.026,-0.0158
-98.024,-0.0152
-98.022,-0.0144
-98.02,-0.0148
-98.018,-0.0154
-98.016,-0.0134
-98.014,-0.0154
-98.012,-0.0136
-98.01,-0.0138
-98.008,-0.0152
-98.006,-0.0146
-98.004,-0.016
-98.002,-0.0146
-98,-0.014
-97.998,-0.0146
-97.996,-0.0138
-97.994,-0.0154
-97.992,-0.015
-97.99,-0.0156
-97.988,-0.014
-97.986,-0.0156
-97.984,-0.017
-97.982,-0.0154
-97.98,-0.0148
-97.978,-0.0142
-97.976,-0.0156
-97.974,-0.015
-97.972,-0.0148
-97.97,-0.0146
-97.968,-0.0152
-97.966,-0.0158
-97.964,-0.0146
-97.962,-0.0156
-97.96,-0.0146
-97.958,-0.0154
-97.956,-0.015
-97.954,-0.0152
-97.952,-0.0138
-97.95,-0.0156
-97.948,-0.0158
-97.946,-0.0144
-97.944,-0.0152
-97.942,-0.0152
-97.94,-0.0154
-97.938,-0.0144
-97.936,-0.0164
-97.934,-0.0162
-97.932,-0.0158
-97.93,-0.0142
-97.928,-0.0148
-97.926,-0.0152
-97.924,-0.0156
-97.922,-0.0148
-97.92,-0.016
-97.918,-0.014
-97.916,-0.0168
-97.914,-0.0148
-97.912,-0.016
-97.91,-0.0154
-97.908,-0.0144
-97.906,-0.0146
-97.904,-0.0174
-97.902,-0.0142
-97.9,-0.0164
-97.898,-0.0154
-97.896,-0.0154
-97.894,-0.0154
-97.892,-0.0156
-97.89,-0.0158
-97.888,-0.0152
-97.886,-0.0158
-97.884,-0.0158
-97.882,-0.015
-97.88,-0.016
-97.878,-0.0146
-97.876,-0.0146
-97.874,-0.016
-97.872,-0.0142
-97.87,-0.016
-97.868,-0.0146
-97.866,-0.016
-97.864,-0.0156
-97.862,-0.0158
-97.86,-0.016
-97.858,-0.0166
-97.856,-0.0144
-97.854,-0.015
-97.852,-0.0164
-97.85,-0.0168
-97.848,-0.016
-97.846,-0.0148
-97.844,-0.0136
-97.842,-0.0154
-97.84,-0.0152
-97.838,-0.0152
-97.836,-0.0146
-97.834,-0.015
-97.832,-0.0156
-97.83,-0.0138
-97.828,-0.0144
-97.826,-0.016
-97.824,-0.0152
-97.822,-0.0148
-97.82,-0.015
-97.818,-0.0156
-97.816,-0.0168
-97.814,-0.0142
-97.812,-0.015
-97.81,-0.0164
-97.808,-0.0148
-97.806,-0.0154
-97.804,-0.0146
-97.802,-0.015
-97.8,-0.0158
-97.798,-0.0164
-97.796,-0.0148
-97.794,-0.0162
-97.792,-0.0146
-97.79,-0.017
-97.788,-0.015
-97.786,-0.0158
-97.784,-0.0142
-97.782,-0.0162
-97.78,-0.0142
-97.778,-0.016
-97.776,-0.0138
-97.774,-0.016
-97.772,-0.0154
-97.77,-0.0148
-97.768,-0.016
-97.766,-0.0154
-97.764,-0.0154
-97.762,-0.0142
-97.76,-0.0154
-97.758,-0.0144
-97.756,-0.0142
-97.754,-0.0142
-97.752,-0.015
-97.75,-0.0152
-97.748,-0.0138
-97.746,-0.016
-97.744,-0.0142
-97.742,-0.0164
-97.74,-0.0156
-97.738,-0.0162
-97.736,-0.0152
-97.734,-0.0144
-97.732,-0.0164
-97.73,-0.0154
-97.728,-0.0144
-97.726,-0.0164
-97.724,-0.0138
-97.722,-0.0156
-97.72,-0.0142
-97.718,-0.0162
-97.716,-0.0144
-97.714,-0.0152
-97.712,-0.016
-97.71,-0.014
-97.708,-0.0142
-97.706,-0.0154
-97.704,-0.0156
-97.702,-0.0152
-97.7,-0.0158
-97.698,-0.0146
-97.696,-0.0156
-97.694,-0.0144
-97.692,-0.0154
-97.69,-0.0162
-97.688,-0.0146
-97.686,-0.016
-97.684,-0.015
-97.682,-0.0138
-97.68,-0.0156
-97.678,-0.0152
-97.676,-0.0154
-97.674,-0.0136
-97.672,-0.0148
-97.67,-0.016
-97.668,-0.0156
-97.666,-0.0144
-97.664,-0.0158
-97.662,-0.0138
-97.66,-0.015
-97.658,-0.017
-97.656,-0.0156
-97.654,-0.0152
-97.652,-0.015
-97.65,-0.0144
-97.648,-0.016
-97.646,-0.0154
-97.644,-0.0164
-97.642,-0.0154
-97.64,-0.0142
-97.638,-0.016
-97.636,-0.014
-97.634,-0.013
-97.632,-0.0156
-97.63,-0.0156
-97.628,-0.015
-97.626,-0.0138
-97.624,-0.0154
-97.622,-0.0154
-97.62,-0.015
-97.618,-0.0164
-97.616,-0.0138
-97.614,-0.0162
-97.612,-0.0168
-97.61,-0.015
-97.608,-0.0148
-97.606,-0.016
-97.604,-0.0154
-97.602,-0.0148
-97.6,-0.0168
-97.598,-0.0144
-97.596,-0.0162
-97.594,-0.014
-97.592,-0.016
-97.59,-0.016
-97.588,-0.0146
-97.586,-0.0154
-97.584,-0.0158
-97.582,-0.0158
-97.58,-0.0142
-97.578,-0.0158
-97.576,-0.0154
-97.574,-0.016
-97.572,-0.0138
-97.57,-0.0142
-97.568,-0.015
-97.566,-0.0138
-97.564,-0.0144
-97.562,-0.0152
-97.56,-0.0136
-97.558,-0.0156
-97.556,-0.0138
-97.554,-0.0158
-97.552,-0.0148
-97.55,-0.0138
-97.548,-0.0158
-97.546,-0.0154
-97.544,-0.0158
-97.542,-0.0142
-97.54,-0.0148
-97.538,-0.0158
-97.536,-0.0152
-97.534,-0.0146
-97.532,-0.0164
-97.53,-0.014
-97.528,-0.0162
-97.526,-0.014
-97.524,-0.0154
-97.522,-0.0164
-97.52,-0.0142
-97.518,-0.0162
-97.516,-0.016
-97.514,-0.0136
-97.512,-0.0164
-97.51,-0.015
-97.508,-0.014
-97.506,-0.0152
-97.504,-0.0142
-97.502,-0.0156
-97.5,-0.015
-97.498,-0.0144
-97.496,-0.0142
-97.494,-0.0142
-97.492,-0.0156
-97.49,-0.0152
-97.488,-0.0148
-97.486,-0.016
-97.484,-0.0148
-97.482,-0.0144
-97.48,-0.0164
-97.478,-0.0152
-97.476,-0.0154
-97.474,-0.015
