Laser_Trapping/Data/22FEB2018/tek0003CH3.csv

Model,MDO3014
Firmware Version,1.20

Waveform Type,ANALOG
Point Format,Y
Horizontal Units,s
Horizontal Scale,20
Horizontal Delay,0
Sample Interval,0.002
Record Length,100000
Gating,0.0% to 100.0%
Probe Attenuation,1
Vertical Units,V
Vertical Offset,0
Vertical Scale,0.005
Vertical Position,2
,
,
,
Label,
TIME,CH3
-100,-0.0154
-99.998,-0.0156
-99.996,-0.016
-99.994,-0.0152
-99.992,-0.0158
-99.99,-0.0148
-99.988,-0.0154
-99.986,-0.0152
-99.984,-0.0152
-99.982,-0.016
-99.98,-0.0158
-99.978,-0.0152
-99.976,-0.0154
-99.974,-0.0152
-99.972,-0.0162
-99.97,-0.0156
-99.968,-0.0164
-99.966,-0.0164
-99.964,-0.0158
-99.962,-0.0156
-99.96,-0.0162
-99.958,-0.0158
-99.956,-0.0154
-99.954,-0.0162
-99.952,-0.0156
-99.95,-0.0156
-99.948,-0.0172
-99.946,-0.0152
-99.944,-0.0148
-99.942,-0.015
-99.94,-0.0156
-99.938,-0.0148
-99.936,-0.016
-99.934,-0.0154
-99.932,-0.015
-99.93,-0.016
-99.928,-0.0154
-99.926,-0.0146
-99.924,-0.0152
-99.922,-0.0156
-99.92,-0.0158
-99.918,-0.0156
-99.916,-0.015
-99.914,-0.0164
-99.912,-0.016
-99.91,-0.0158
-99.908,-0.0158
-99.906,-0.016
-99.904,-0.0158
-99.902,-0.0154
-99.9,-0.015
-99.898,-0.0156
-99.896,-0.016
-99.894,-0.0152
-99.892,-0.0162
-99.89,-0.0154
-99.888,-0.0148
-99.886,-0.015
-99.884,-0.0156
-99.882,-0.016
-99.88,-0.016
-99.878,-0.0148
-99.876,-0.0158
-99.874,-0.0148
-99.872,-0.0166
-99.87,-0.016
-99.868,-0.0156
-99.866,-0.0164
-99.864,-0.0154
-99.862,-0.0152
-99.86,-0.0156
-99.858,-0.014
-99.856,-0.0168
-99.854,-0.0152
-99.852,-0.0154
-99.85,-0.0156
-99.848,-0.0142
-99.846,-0.0168
-99.844,-0.0156
-99.842,-0.0162
-99.84,-0.016
-99.838,-0.015
-99.836,-0.015
-99.834,-0.0156
-99.832,-0.0156
-99.83,-0.0152
-99.828,-0.0158
-99.826,-0.0164
-99.824,-0.0156
-99.822,-0.016
-99.82,-0.015
-99.818,-0.0156
-99.816,-0.015
-99.814,-0.0154
-99.812,-0.015
-99.81,-0.0158
-99.808,-0.0152
-99.806,-0.0158
-99.804,-0.0158
-99.802,-0.0148
-99.8,-0.0158
-99.798,-0.0158
-99.796,-0.0152
-99.794,-0.0164
-99.792,-0.016
-99.79,-0.0158
-99.788,-0.0156
-99.786,-0.0144
-99.784,-0.016
-99.782,-0.0142
-99.78,-0.0152
-99.778,-0.0168
-99.776,-0.0152
-99.774,-0.0158
-99.772,-0.0154
-99.77,-0.0152
-99.768,-0.0158
-99.766,-0.0156
-99.764,-0.0152
-99.762,-0.0154
-99.76,-0.0154
-99.758,-0.0156
-99.756,-0.016
-99.754,-0.0154
-99.752,-0.0162
-99.75,-0.0158
-99.748,-0.0158
-99.746,-0.0154
-99.744,-0.0152
-99.742,-0.0148
-99.74,-0.0164
-99.738,-0.0152
-99.736,-0.0162
-99.734,-0.0164
-99.732,-0.015
-99.73,-0.015
-99.728,-0.015
-99.726,-0.0154
-99.724,-0.016
-99.722,-0.0156
-99.72,-0.0146
-99.718,-0.015
-99.716,-0.016
-99.714,-0.0148
-99.712,-0.0158
-99.71,-0.0162
-99.708,-0.0158
-99.706,-0.0162
-99.704,-0.0164
-99.702,-0.016
-99.7,-0.015
-99.698,-0.0156
-99.696,-0.0156
-99.694,-0.015
-99.692,-0.0158
-99.69,-0.0162
-99.688,-0.0152
-99.686,-0.0164
-99.684,-0.0156
-99.682,-0.0152
-99.68,-0.0144
-99.678,-0.0152
-99.676,-0.0164
-99.674,-0.0152
-99.672,-0.0148
-99.67,-0.016
-99.668,-0.015
-99.666,-0.015
-99.664,-0.015
-99.662,-0.0146
-99.66,-0.0156
-99.658,-0.0158
-99.656,-0.0156
-99.654,-0.0162
-99.652,-0.0158
-99.65,-0.015
-99.648,-0.0158
-99.646,-0.0162
-99.644,-0.0156
-99.642,-0.0158
-99.64,-0.0154
-99.638,-0.0154
-99.636,-0.0156
-99.634,-0.0156
-99.632,-0.0154
-99.63,-0.0156
-99.628,-0.016
-99.626,-0.0164
-99.624,-0.0168
-99.622,-0.015
-99.62,-0.0156
-99.618,-0.016
-99.616,-0.0152
-99.614,-0.0156
-99.612,-0.0162
-99.61,-0.0158
-99.608,-0.0166
-99.606,-0.015
-99.604,-0.016
-99.602,-0.0164
-99.6,-0.0146
-99.598,-0.0164
-99.596,-0.0156
-99.594,-0.0154
-99.592,-0.0162
-99.59,-0.015
-99.588,-0.016
-99.586,-0.0158
-99.584,-0.0144
-99.582,-0.0152
-99.58,-0.016
-99.578,-0.0164
-99.576,-0.0154
-99.574,-0.0162
-99.572,-0.0146
-99.57,-0.0162
-99.568,-0.0156
-99.566,-0.0154
-99.564,-0.0156
-99.562,-0.016
-99.56,-0.0168
-99.558,-0.0156
-99.556,-0.0156
-99.554,-0.0152
-99.552,-0.0146
-99.55,-0.0156
-99.548,-0.016
-99.546,-0.0156
-99.544,-0.0152
-99.542,-0.0152
-99.54,-0.016
-99.538,-0.0162
-99.536,-0.0164
-99.534,-0.0158
-99.532,-0.0164
-99.53,-0.015
-99.528,-0.0156
-99.526,-0.016
-99.524,-0.0156
-99.522,-0.015
-99.52,-0.0164
-99.518,-0.016
-99.516,-0.0166
-99.514,-0.0156
-99.512,-0.0152
-99.51,-0.0152
-99.508,-0.0152
-99.506,-0.0152
-99.504,-0.0164
-99.502,-0.016
-99.5,-0.0162
-99.498,-0.0154
-99.496,-0.0152
-99.494,-0.0162
-99.492,-0.016
-99.49,-0.0156
-99.488,-0.0158
-99.486,-0.0164
-99.484,-0.0156
-99.482,-0.016
-99.48,-0.0162
-99.478,-0.016
-99.476,-0.0146
-99.474,-0.0172
-99.472,-0.0164
-99.47,-0.0148
-99.468,-0.0164
-99.466,-0.0162
-99.464,-0.0142
-99.462,-0.0172
-99.46,-0.0162
-99.458,-0.0164
-99.456,-0.0156
-99.454,-0.0152
-99.452,-0.0162
-99.45,-0.0154
-99.448,-0.0162
-99.446,-0.0162
-99.444,-0.015
-99.442,-0.0156
-99.44,-0.0166
-99.438,-0.015
-99.436,-0.016
-99.434,-0.015
-99.432,-0.0158
-99.43,-0.017
-99.428,-0.0162
-99.426,-0.016
-99.424,-0.0166
-99.422,-0.0152
-99.42,-0.0152
-99.418,-0.0162
-99.416,-0.0158
-99.414,-0.015
-99.412,-0.0164
-99.41,-0.014
-99.408,-0.0158
-99.406,-0.0152
-99.404,-0.0156
-99.402,-0.016
-99.4,-0.0154
-99.398,-0.0154
-99.396,-0.0158
-99.394,-0.0156
-99.392,-0.0152
-99.39,-0.016
-99.388,-0.0154
-99.386,-0.0164
-99.384,-0.015
-99.382,-0.0156
-99.38,-0.016
-99.378,-0.015
-99.376,-0.0156
-99.374,-0.0162
-99.372,-0.0158
-99.37,-0.0146
-99.368,-0.0154
-99.366,-0.0156
-99.364,-0.015
-99.362,-0.0156
-99.36,-0.0158
-99.358,-0.0154
-99.356,-0.016
-99.354,-0.016
-99.352,-0.0138
-99.35,-0.015
-99.348,-0.0154
-99.346,-0.0158
-99.344,-0.0156
-99.342,-0.0162
-99.34,-0.0164
-99.338,-0.016
-99.336,-0.0158
-99.334,-0.015
-99.332,-0.0156
-99.33,-0.0154
-99.328,-0.0156
-99.326,-0.0154
-99.324,-0.015
-99.322,-0.0162
-99.32,-0.0152
-99.318,-0.016
-99.316,-0.0158
-99.314,-0.0152
-99.312,-0.0154
-99.31,-0.0164
-99.308,-0.0158
-99.306,-0.0158
-99.304,-0.0154
-99.302,-0.0164
-99.3,-0.015
-99.298,-0.0162
-99.296,-0.0152
-99.294,-0.0142
-99.292,-0.0152
-99.29,-0.0138
-99.288,-0.0156
-99.286,-0.0164
-99.284,-0.0154
-99.282,-0.016
-99.28,-0.0156
-99.278,-0.0144
-99.276,-0.0152
-99.274,-0.015
-99.272,-0.015
-99.27,-0.016
-99.268,-0.0158
-99.266,-0.016
-99.264,-0.0156
-99.262,-0.0156
-99.26,-0.016
-99.258,-0.0166
-99.256,-0.0158
-99.254,-0.0154
-99.252,-0.0154
-99.25,-0.0156
-99.248,-0.0152
-99.246,-0.0152
-99.244,-0.0156
-99.242,-0.0156
-99.24,-0.0154
-99.238,-0.0154
-99.236,-0.0146
-99.234,-0.0154
-99.232,-0.015
-99.23,-0.016
-99.228,-0.016
-99.226,-0.0154
-99.224,-0.0162
-99.222,-0.015
-99.22,-0.0152
-99.218,-0.016
-99.216,-0.016
-99.214,-0.016
-99.212,-0.0142
-99.21,-0.0156
-99.208,-0.0156
-99.206,-0.0154
-99.204,-0.0148
-99.202,-0.0164
-99.2,-0.0146
-99.198,-0.0152
-99.196,-0.0154
-99.194,-0.0152
-99.192,-0.0154
-99.19,-0.015
-99.188,-0.016
-99.186,-0.0156
-99.184,-0.0158
-99.182,-0.0158
-99.18,-0.0156
-99.178,-0.0156
-99.176,-0.0158
-99.174,-0.0164
-99.172,-0.0154
-99.17,-0.0148
-99.168,-0.016
-99.166,-0.0152
-99.164,-0.0146
-99.162,-0.0162
-99.16,-0.0154
-99.158,-0.0146
-99.156,-0.0164
-99.154,-0.0154
-99.152,-0.016
-99.15,-0.0152
-99.148,-0.0146
-99.146,-0.0154
-99.144,-0.0156
-99.142,-0.0156
-99.14,-0.0162
-99.138,-0.0166
-99.136,-0.0158
-99.134,-0.0152
-99.132,-0.015
-99.13,-0.0156
-99.128,-0.0154
-99.126,-0.0148
-99.124,-0.0166
-99.122,-0.0152
-99.12,-0.016
-99.118,-0.0156
-99.116,-0.0158
-99.114,-0.0152
-99.112,-0.0144
-99.11,-0.0156
-99.108,-0.0164
-99.106,-0.0154
-99.104,-0.0158
-99.102,-0.015
-99.1,-0.0148
-99.098,-0.0154
-99.096,-0.0154
-99.094,-0.0158
-99.092,-0.0152
-99.09,-0.0152
-99.088,-0.0156
-99.086,-0.016
-99.084,-0.0166
-99.082,-0.0158
-99.08,-0.015
-99.078,-0.0164
-99.076,-0.0154
-99.074,-0.0146
-99.072,-0.0154
-99.07,-0.016
-99.068,-0.016
-99.066,-0.0154
-99.064,-0.015
-99.062,-0.0156
-99.06,-0.0154
-99.058,-0.0152
-99.056,-0.0154
-99.054,-0.016
-99.052,-0.0166
-99.05,-0.016
-99.048,-0.0158
-99.046,-0.0154
-99.044,-0.0156
-99.042,-0.0166
-99.04,-0.015
-99.038,-0.0152
-99.036,-0.0162
-99.034,-0.015
-99.032,-0.016
-99.03,-0.0158
-99.028,-0.0144
-99.026,-0.015
-99.024,-0.0156
-99.022,-0.015
-99.02,-0.0158
-99.018,-0.0158
-99.016,-0.0158
-99.014,-0.0148
-99.012,-0.0164
-99.01,-0.0158
-99.008,-0.0158
-99.006,-0.0162
-99.004,-0.015
-99.002,-0.016
-99,-0.014
-98.998,-0.0162
-98.996,-0.0162
-98.994,-0.0154
-98.992,-0.017
-98.99,-0.0158
-98.988,-0.0146
-98.986,-0.0154
-98.984,-0.0144
-98.982,-0.0148
-98.98,-0.0158
-98.978,-0.0154
-98.976,-0.0154
-98.974,-0.0156
-98.972,-0.0154
-98.97,-0.016
-98.968,-0.0152
-98.966,-0.0156
-98.964,-0.016
-98.962,-0.015
-98.96,-0.0154
-98.958,-0.0158
-98.956,-0.0152
-98.954,-0.016
-98.952,-0.0152
-98.95,-0.0152
-98.948,-0.0162
-98.946,-0.0158
-98.944,-0.016
-98.942,-0.0154
-98.94,-0.0152
-98.938,-0.0156
-98.936,-0.016
-98.934,-0.0154
-98.932,-0.0164
-98.93,-0.016
-98.928,-0.0164
-98.926,-0.016
-98.924,-0.0156
-98.922,-0.0152
-98.92,-0.0156
-98.918,-0.0156
-98.916,-0.016
-98.914,-0.0156
-98.912,-0.016
-98.91,-0.0156
-98.908,-0.016
-98.906,-0.0156
-98.904,-0.016
-98.902,-0.015
-98.9,-0.0156
-98.898,-0.0154
-98.896,-0.0152
-98.894,-0.0158
-98.892,-0.0156
-98.89,-0.0158
-98.888,-0.0158
-98.886,-0.0158
-98.884,-0.0154
-98.882,-0.016
-98.88,-0.0158
-98.878,-0.0158
-98.876,-0.016
-98.874,-0.0156
-98.872,-0.0158
-98.87,-0.0156
-98.868,-0.0164
-98.866,-0.0162
-98.864,-0.015
-98.862,-0.017
-98.86,-0.0164
-98.858,-0.0156
-98.856,-0.016
-98.854,-0.0158
-98.852,-0.0142
-98.85,-0.0164
-98.848,-0.0156
-98.846,-0.016
-98.844,-0.015
-98.842,-0.015
-98.84,-0.0154
-98.838,-0.016
-98.836,-0.016
-98.834,-0.0158
-98.832,-0.0156
-98.83,-0.0186
-98.828,-0.0162
-98.826,-0.0154
-98.824,-0.0164
-98.822,-0.0162
-98.82,-0.016
-98.818,-0.0172
-98.816,-0.0142
-98.814,-0.0162
-98.812,-0.0156
-98.81,-0.015
-98.808,-0.0158
-98.806,-0.0156
-98.804,-0.0158
-98.802,-0.0156
-98.8,-0.0158
-98.798,-0.0162
-98.796,-0.0156
-98.794,-0.0154
-98.792,-0.0158
-98.79,-0.0152
-98.788,-0.0162
-98.786,-0.0148
-98.784,-0.0154
-98.782,-0.0158
-98.78,-0.0154
-98.778,-0.0168
-98.776,-0.0154
-98.774,-0.0158
-98.772,-0.016
-98.77,-0.0162
-98.768,-0.016
-98.766,-0.015
-98.764,-0.016
-98.762,-0.0158
-98.76,-0.016
-98.758,-0.016
-98.756,-0.016
-98.754,-0.0154
-98.752,-0.016
-98.75,-0.0156
-98.748,-0.0156
-98.746,-0.0164
-98.744,-0.016
-98.742,-0.0162
-98.74,-0.0158
-98.738,-0.0154
-98.736,-0.016
-98.734,-0.0154
-98.732,-0.0156
-98.73,-0.016
-98.728,-0.0128
-98.726,-0.015
-98.724,-0.016
-98.722,-0.0152
-98.72,-0.0156
-98.718,-0.0158
-98.716,-0.0164
-98.714,-0.015
-98.712,-0.016
-98.71,-0.015
-98.708,-0.0134
-98.706,-0.0152
-98.704,-0.0148
-98.702,-0.0156
-98.7,-0.0154
-98.698,-0.0144
-98.696,-0.0152
-98.694,-0.0162
-98.692,-0.0162
-98.69,-0.0166
-98.688,-0.0166
-98.686,-0.0164
-98.684,-0.0156
-98.682,-0.0152
-98.68,-0.0158
-98.678,-0.0154
-98.676,-0.0156
-98.674,-0.0158
-98.672,-0.015
-98.67,-0.0154
-98.668,-0.016
-98.666,-0.0156
-98.664,-0.0164
-98.662,-0.0152
-98.66,-0.018
-98.658,-0.0164
-98.656,-0.015
-98.654,-0.0168
-98.652,-0.0158
-98.65,-0.0162
-98.648,-0.016
-98.646,-0.0154
-98.644,-0.0154
-98.642,-0.0154
-98.64,-0.0152
-98.638,-0.0156
-98.636,-0.0148
-98.634,-0.0158
-98.632,-0.017
-98.63,-0.0156
-98.628,-0.0156
-98.626,-0.0156
-98.624,-0.0148
-98.622,-0.016
-98.62,-0.0156
-98.618,-0.0154
-98.616,-0.016
-98.614,-0.0152
-98.612,-0.0152
-98.61,-0.016
-98.608,-0.0148
-98.606,-0.0156
-98.604,-0.015
-98.602,-0.0158
-98.6,-0.0166
-98.598,-0.0164
-98.596,-0.0152
-98.594,-0.015
-98.592,-0.015
-98.59,-0.015
-98.588,-0.0154
-98.586,-0.0152
-98.584,-0.016
-98.582,-0.016
-98.58,-0.0158
-98.578,-0.0162
-98.576,-0.016
-98.574,-0.0152
-98.572,-0.015
-98.57,-0.016
-98.568,-0.0152
-98.566,-0.0152
-98.564,-0.0158
-98.562,-0.015
-98.56,-0.017
-98.558,-0.0154
-98.556,-0.0152
-98.554,-0.015
-98.552,-0.0156
-98.55,-0.0156
-98.548,-0.015
-98.546,-0.0154
-98.544,-0.0162
-98.542,-0.0152
-98.54,-0.0156
-98.538,-0.0156
-98.536,-0.0158
-98.534,-0.0154
-98.532,-0.0154
-98.53,-0.0174
-98.528,-0.0156
-98.526,-0.0156
-98.524,-0.0164
-98.522,-0.0156
-98.52,-0.0154
-98.518,-0.0164
-98.516,-0.0158
-98.514,-0.015
-98.512,-0.0158
-98.51,-0.0152
-98.508,-0.0162
-98.506,-0.0158
-98.504,-0.0156
-98.502,-0.0158
-98.5,-0.0158
-98.498,-0.0158
-98.496,-0.0142
-98.494,-0.0154
-98.492,-0.0154
-98.49,-0.017
-98.488,-0.0158
-98.486,-0.0158
-98.484,-0.0154
-98.482,-0.0154
-98.48,-0.016
-98.478,-0.0162
-98.476,-0.0162
-98.474,-0.016
-98.472,-0.015
-98.47,-0.0152
-98.468,-0.0164
-98.466,-0.016
-98.464,-0.0152
-98.462,-0.0152
-98.46,-0.0156
-98.458,-0.0156
-98.456,-0.0158
-98.454,-0.015
-98.452,-0.0158
-98.45,-0.0148
-98.448,-0.0152
-98.446,-0.0154
-98.444,-0.0156
-98.442,-0.0152
-98.44,-0.016
-98.438,-0.0156
-98.436,-0.0158
-98.434,-0.016
-98.432,-0.0156
-98.43,-0.0162
-98.428,-0.0152
-98.426,-0.0152
-98.424,-0.016
-98.422,-0.0158
-98.42,-0.0158
-98.418,-0.0152
-98.416,-0.0144
-98.414,-0.0164
-98.412,-0.0158
-98.41,-0.016
-98.408,-0.0154
-98.406,-0.0154
-98.404,-0.0164
-98.402,-0.0156
-98.4,-0.0156
-98.398,-0.0168
-98.396,-0.0156
-98.394,-0.0156
-98.392,-0.0156
-98.39,-0.0152
-98.388,-0.0164
-98.386,-0.0154
-98.384,-0.0156
-98.382,-0.016
-98.38,-0.0158
-98.378,-0.015
-98.376,-0.0144
-98.374,-0.0158
-98.372,-0.0142
-98.37,-0.0158
-98.368,-0.016
-98.366,-0.0146
-98.364,-0.015
-98.362,-0.0162
-98.36,-0.0162
-98.358,-0.0152
-98.356,-0.0156
-98.354,-0.0154
-98.352,-0.0158
-98.35,-0.0156
-98.348,-0.0164
-98.346,-0.0152
-98.344,-0.0148
-98.342,-0.0168
-98.34,-0.016
-98.338,-0.0158
-98.336,-0.016
-98.334,-0.0156
-98.332,-0.0162
-98.33,-0.0154
-98.328,-0.0156
-98.326,-0.0164
-98.324,-0.0148
-98.322,-0.015
-98.32,-0.016
-98.318,-0.0156
-98.316,-0.0154
-98.314,-0.0158
-98.312,-0.0166
-98.31,-0.0156
-98.308,-0.016
-98.306,-0.0154
-98.304,-0.0152
-98.302,-0.016
-98.3,-0.016
-98.298,-0.0164
-98.296,-0.0156
-98.294,-0.0158
-98.292,-0.015
-98.29,-0.0152
-98.288,-0.015
-98.286,-0.015
-98.284,-0.0158
-98.282,-0.0156
-98.28,-0.0156
-98.278,-0.0158
-98.276,-0.016
-98.274,-0.0158
-98.272,-0.0154
-98.27,-0.0158
-98.268,-0.0154
-98.266,-0.0158
-98.264,-0.016
-98.262,-0.015
-98.26,-0.016
-98.258,-0.016
-98.256,-0.0154
-98.254,-0.0164
-98.252,-0.0152
-98.25,-0.0158
-98.248,-0.016
-98.246,-0.0146
-98.244,-0.0164
-98.242,-0.0152
-98.24,-0.0156
-98.238,-0.015
-98.236,-0.0156
-98.234,-0.0166
-98.232,-0.0158
-98.23,-0.0152
-98.228,-0.0162
-98.226,-0.0156
-98.224,-0.0152
-98.222,-0.0156
-98.22,-0.0152
-98.218,-0.0156
-98.216,-0.016
-98.214,-0.0158
-98.212,-0.0162
-98.21,-0.0154
-98.208,-0.0178
-98.206,-0.0156
-98.204,-0.0154
-98.202,-0.0158
-98.2,-0.0154
-98.198,-0.0148
-98.196,-0.0166
-98.194,-0.0158
-98.192,-0.016
-98.19,-0.016
-98.188,-0.0154
-98.186,-0.016
-98.184,-0.0156
-98.182,-0.016
-98.18,-0.0158
-98.178,-0.0152
-98.176,-0.016
-98.174,-0.0148
-98.172,-0.0158
-98.17,-0.0158
-98.168,-0.0152
-98.166,-0.0156
-98.164,-0.0154
-98.162,-0.0164
-98.16,-0.0154
-98.158,-0.0162
-98.156,-0.0156
-98.154,-0.0152
-98.152,-0.0158
-98.15,-0.0162
-98.148,-0.015
-98.146,-0.016
-98.144,-0.016
-98.142,-0.0156
-98.14,-0.0156
-98.138,-0.0148
-98.136,-0.0166
-98.134,-0.0164
-98.132,-0.0162
-98.13,-0.016
-98.128,-0.0158
-98.126,-0.015
-98.124,-0.0154
-98.122,-0.0156
-98.12,-0.015
-98.118,-0.016
-98.116,-0.0158
-98.114,-0.0156
-98.112,-0.0152
-98.11,-0.0152
-98.108,-0.0148
-98.106,-0.0162
-98.104,-0.016
-98.102,-0.0156
-98.1,-0.016
-98.098,-0.0148
-98.096,-0.0158
-98.094,-0.0162
-98.092,-0.0162
-98.09,-0.0156
-98.088,-0.0158
-98.086,-0.015
-98.084,-0.0162
-98.082,-0.0158
-98.08,-0.0162
-98.078,-0.0158
-98.076,-0.016
-98.074,-0.0164
-98.072,-0.0148
-98.07,-0.0156
-98.068,-0.0158
-98.066,-0.0148
-98.064,-0.0152
-98.062,-0.016
-98.06,-0.0162
-98.058,-0.0156
-98.056,-0.0154
-98.054,-0.0156
-98.052,-0.016
-98.05,-0.0148
-98.048,-0.0164
-98.046,-0.0164
-98.044,-0.016
-98.042,-0.0162
-98.04,-0.0156
-98.038,-0.0158
-98.036,-0.016
-98.034,-0.015
-98.032,-0.0164
-98.03,-0.016
-98.028,-0.0152
-98.026,-0.016
-98.024,-0.0154
-98.022,-0.0158
-98.02,-0.0164
-98.018,-0.0156
-98.016,-0.0154
-98.014,-0.0152
-98.012,-0.0146
-98.01,-0.0156
-98.008,-0.0158
-98.006,-0.0156
-98.004,-0.0154
-98.002,-0.0152
-98,-0.0158
-97.998,-0.0154
-97.996,-0.0146
-97.994,-0.0152
-97.992,-0.0156
-97.99,-0.0162
-97.988,-0.0168
-97.986,-0.0154
-97.984,-0.0162
-97.982,-0.0166
-97.98,-0.0144
-97.978,-0.0156
-97.976,-0.0152
-97.974,-0.0162
-97.972,-0.0154
-97.97,-0.0162
-97.968,-0.0154
-97.966,-0.016
-97.964,-0.016
-97.962,-0.0162
-97.96,-0.0162
-97.958,-0.0162
-97.956,-0.015
-97.954,-0.0152
-97.952,-0.015
-97.95,-0.0156
-97.948,-0.016
-97.946,-0.016
-97.944,-0.0156
-97.942,-0.0154
-97.94,-0.0154
-97.938,-0.016
-97.936,-0.0148
-97.934,-0.016
-97.932,-0.0154
-97.93,-0.015
-97.928,-0.0154
-97.926,-0.0168
-97.924,-0.0156
-97.922,-0.0156
-97.92,-0.0156
-97.918,-0.016
-97.916,-0.0156
-97.914,-0.0158
-97.912,-0.016
-97.91,-0.0164
-97.908,-0.0156
-97.906,-0.0162
-97.904,-0.0156
-97.902,-0.0158
-97.9,-0.0162
-97.898,-0.016
-97.896,-0.0168
-97.894,-0.015
-97.892,-0.0156
-97.89,-0.0154
-97.888,-0.0158
-97.886,-0.0166
-97.884,-0.0152
-97.882,-0.016
-97.88,-0.0158
-97.878,-0.0158
-97.876,-0.0172
-97.874,-0.0164
-97.872,-0.0164
-97.87,-0.016
-97.868,-0.0152
-97.866,-0.0166
-97.864,-0.0162
-97.862,-0.0162
-97.86,-0.0148
-97.858,-0.0168
-97.856,-0.0158
-97.854,-0.016
-97.852,-0.0154
-97.85,-0.0152
-97.848,-0.0158
-97.846,-0.0154
-97.844,-0.0154
-97.842,-0.0164
-97.84,-0.0156
-97.838,-0.016
-97.836,-0.0152
-97.834,-0.0154
-97.832,-0.0158
-97.83,-0.0154
-97.828,-0.0156
-97.826,-0.0154
-97.824,-0.0148
-97.822,-0.0152
-97.82,-0.016
-97.818,-0.016
-97.816,-0.0158
-97.814,-0.0166
-97.812,-0.016
-97.81,-0.015
-97.808,-0.016
-97.806,-0.0148
-97.804,-0.0156
-97.802,-0.0164
-97.8,-0.0158
-97.798,-0.0162
-97.796,-0.016
-97.794,-0.0146
-97.792,-0.0154
-97.79,-0.0152
-97.788,-0.0158
-97.786,-0.0162
-97.784,-0.0158
-97.782,-0.0158
-97.78,-0.0146
-97.778,-0.0164
-97.776,-0.0156
-97.774,-0.0146
-97.772,-0.0156
-97.77,-0.016
-97.768,-0.015
-97.766,-0.016
-97.764,-0.0156
-97.762,-0.0148
-97.76,-0.0164
-97.758,-0.0154
-97.756,-0.0158
-97.754,-0.0154
-97.752,-0.0152
-97.75,-0.0154
-97.748,-0.0156
-97.746,-0.0154
-97.744,-0.0156
-97.742,-0.0162
-97.74,-0.0168
-97.738,-0.0158
-97.736,-0.0154
-97.734,-0.0162
-97.732,-0.0154
-97.73,-0.0156
-97.728,-0.0162
-97.726,-0.0144
-97.724,-0.0152
-97.722,-0.0158
-97.72,-0.0148
-97.718,-0.015
-97.716,-0.015
-97.714,-0.0156
-97.712,-0.016
-97.71,-0.0156
-97.708,-0.0156
-97.706,-0.015
-97.704,-0.016
-97.702,-0.0152
-97.7,-0.0156
-97.698,-0.016
-97.696,-0.015
-97.694,-0.0156
-97.692,-0.0158
-97.69,-0.0152
-97.688,-0.0162
-97.686,-0.0152
-97.684,-0.0164
-97.682,-0.0156
-97.68,-0.0138
-97.678,-0.0154
-97.676,-0.014
-97.674,-0.0154
-97.672,-0.0156
-97.67,-0.0144
-97.668,-0.0156
-97.666,-0.0146
-97.664,-0.015
-97.662,-0.016
-97.66,-0.015
-97.658,-0.0158
-97.656,-0.0152
-97.654,-0.0158
-97.652,-0.015
-97.65,-0.0154
-97.648,-0.0156
-97.646,-0.0164
-97.644,-0.0146
-97.642,-0.015
-97.64,-0.0148
-97.638,-0.0146
-97.636,-0.0152
-97.634,-0.0156
-97.632,-0.0146
-97.63,-0.0154
-97.628,-0.015
-97.626,-0.0148
-97.624,-0.0144
-97.622,-0.0148
-97.62,-0.0158
-97.618,-0.016
-97.616,-0.0144
-97.614,-0.0158
-97.612,-0.016
-97.61,-0.015
-97.608,-0.0156
-97.606,-0.015
-97.604,-0.0158
-97.602,-0.015
-97.6,-0.0154
-97.598,-0.0154
-97.596,-0.0158
-97.594,-0.0152
-97.592,-0.0152
-97.59,-0.0144
-97.588,-0.0146
-97.586,-0.0144
-97.584,-0.0148
-97.582,-0.0154
-97.58,-0.0156
-97.578,-0.0158
-97.576,-0.015
-97.574,-0.0158
-97.572,-0.016
-97.57,-0.015
-97.568,-0.016
-97.566,-0.0154
-97.564,-0.0156
-97.562,-0.0148
-97.56,-0.016
-97.558,-0.0152
-97.556,-0.0154
-97.554,-0.0158
-97.552,-0.0146
-97.55,-0.015
-97.548,-0.0156
-97.546,-0.0152
-97.544,-0.0148
-97.542,-0.0158
-97.54,-0.0148
-97.538,-0.0156
-97.536,-0.0152
-97.534,-0.015
-97.532,-0.015
-97.53,-0.0156
-97.528,-0.0158
-97.526,-0.016
-97.524,-0.0156
-97.522,-0.0152
-97.52,-0.0152
-97.518,-0.0152
-97.516,-0.016
-97.514,-0.0152
-97.512,-0.0162
-97.51,-0.0164
-97.508,-0.015
-97.506,-0.0162
-97.504,-0.015
-97.502,-0.0142
-97.5,-0.0158
-97.498,-0.0152
-97.496,-0.0156
-97.494,-0.0158
-97.492,-0.0144
-97.49,-0.0158
-97.488,-0.0146
-97.486,-0.016
-97.484,-0.0152
-97.482,-0.0158
-97.48,-0.0154
-97.478,-0.0164
-97.476,-0.016
-97.474,-0.0158
-97.472,-0.0162
-97.47,-0.0152
